Juggling between tidy and non tidy forms
…
## The following objects are masked from 'package:base':
## 
##     intersect, setdiff, setequal, union

library(tidytext)

## Warning: package 'tidytext' was built under R version 3.4.4

ap_td <- tidy(AssociatedPress)

ap_td

## # A tibble: 302,031 x 3
##    document term       count
##       <int> <chr>      <dbl>
##  1        1 adding        1.
##  2        1 adult         2.
##  3        1 ago           1.
##  4        1 alcohol       1.
##  5        1 allegedly     1.
##  6        1 allen         1.
##  7        1 apparently    2.
##  8        1 appeared      1.
##  9        1 arrested      1.
## 10        1 assault       1.
## # ... with 302,021 more rows

Tidied version has no rows where count = 0. This form is convinient for analysis with dplyr, tidytext and ggplot2.

ap_sentiments <- ap_td %>% 
  inner_join(get_sentiments("bing"), by = c(term = "word"))

ap_sentiments

## # A tibble: 30,094 x 4
##    document term    count sentiment
##       <int> <chr>   <dbl> <chr>    
##  1        1 assault    1. negative 
##  2        1 complex    1. negative 
##  3        1 death      1. negative 
##  4        1 died       1. negative 
##  5        1 good       2. positive 
##  6        1 illness    1. negative 
##  7        1 killed     2. negative 
##  8        1 like       2. positive 
##  9        1 liked      1. positive 
## 10        1 miracle    1. positive 
## # ... with 30,084 more rows
…
## The following object is masked from 'package:utils':
## 
##     View

data("data_corpus_inaugural", package = "quanteda")
inaug_dfm <- dfm(data_corpus_inaugural, verbose = F)

inaug_tidy <- tidy(inaug_dfm)

inaug_tidy

## # A tibble: 44,709 x 3
##    document        term            count
##    <chr>           <chr>           <dbl>
##  1 1789-Washington fellow-citizens    1.
##  2 1797-Adams      fellow-citizens    3.
##  3 1801-Jefferson  fellow-citizens    2.
##  4 1809-Madison    fellow-citizens    1.
##  5 1813-Madison    fellow-citizens    1.
##  6 1817-Monroe     fellow-citizens    5.
##  7 1821-Monroe     fellow-citizens    1.
##  8 1841-Harrison   fellow-citizens   11.
##  9 1845-Polk       fellow-citizens    1.
## 10 1849-Taylor     fellow-citizens    1.
## # ... with 44,699 more rows

We can find the words most specific to each inaugural speeches using tf-idf mapping.

inaug_tf_idf <- inaug_tidy %>% 
  bind_tf_idf(term,document,count) %>% 
  arrange(desc(tf_idf))

inaug_tf_idf

## # A tibble: 44,709 x 6
##    document        term        count      tf   idf tf_idf
##    <chr>           <chr>       <dbl>   <dbl> <dbl>  <dbl>
##  1 1793-Washington arrive         1. 0.00680  4.06 0.0276
##  2 1793-Washington upbraidings    1. 0.00680  4.06 0.0276
##  3 1793-Washington violated       1. 0.00680  3.37 0.0229
##  4 1793-Washington willingly      1. 0.00680  3.37 0.0229
##  5 1793-Washington incurring      1. 0.00680  3.37 0.0229
##  6 1793-Washington previous       1. 0.00680  2.96 0.0201
##  7 1793-Washington knowingly      1. 0.00680  2.96 0.0201
##  8 1793-Washington injunctions    1. 0.00680  2.96 0.0201
##  9 1793-Washington witnesses      1. 0.00680  2.96 0.0201
## 10 1793-Washington besides        1. 0.00680  2.67 0.0182
## # ... with 44,699 more rows
…
