Topic Modelling
…
## A LDA_VEM topic model with 2 topics.

Word topic probabilities

Tidytext provides this method for extracting the per topic per word probabilities called    from the model.

library(tidytext)

## Warning: package 'tidytext' was built under R version 3.4.4

ap_topics <- tidy(ap_lda, matrix = "beta")

ap_topics

## # A tibble: 20,946 x 3
##    topic term           beta
##    <int> <chr>         <dbl>
##  1     1 aaron      1.69e-12
##  2     2 aaron      3.90e- 5
##  3     1 abandon    2.65e- 5
##  4     2 abandon    3.99e- 5
##  5     1 abandoned  1.39e- 4
##  6     2 abandoned  5.88e- 5
##  7     1 abandoning 2.45e-33
##  8     2 abandoning 2.34e- 5
##  9     1 abbott     2.13e- 6
## 10     2 abbott     2.97e- 5
## # ... with 20,936 more rows
…
Alternatively, we can consider the terms which had the greatest difference between the    between topics. This can be estimated based on log ratio :   log 2   (    2    1   )  If    2   is twice as large, the result is +1. If    1   is twice as large, the result is -1. 

library(tidyr)

## Warning: package 'tidyr' was built under R version 3.4.3

beta_spread <- ap_topics %>% 
  mutate(topic = paste0("topic",topic)) %>% 
  spread(topic,beta) %>% 
  filter(topic1 > .001 | topic2 > .001) %>% 
  mutate(log_ratio = log2(topic2/topic1))

beta_spread

## # A tibble: 198 x 4
##    term              topic1      topic2 log_ratio
##    <chr>              <dbl>       <dbl>     <dbl>
##  1 administration 0.000431  0.00138         1.68 
##  2 ago            0.00107   0.000842       -0.339
##  3 agreement      0.000671  0.00104         0.630
##  4 aid            0.0000476 0.00105         4.46 
##  5 air            0.00214   0.000297       -2.85 
##  6 american       0.00203   0.00168        -0.270
##  7 analysts       0.00109   0.000000578   -10.9  
##  8 area           0.00137   0.000231       -2.57 
##  9 army           0.000262  0.00105         2.00 
## 10 asked          0.000189  0.00156         3.05 
## # ... with 188 more rows
…
Figure 6.2: Words with the greatest difference in  between topic 2 and topic 1

Document topic probabilities

Besides estimating each topic as a mixture of words, LDA also models each document as a mixture of topics. We can examine the per-document-per-topic probabilities, called

 (gamma), with the matrix = gamma argument to tidy().

ap_documents <- tidy(ap_lda, matrix = "gamma")

ap_documents

## # A tibble: 4,492 x 3
##    document topic    gamma
##       <int> <int>    <dbl>
##  1        1     1 0.248   
##  2        2     1 0.362   
##  3        3     1 0.527   
##  4        4     1 0.357   
##  5        5     1 0.181   
##  6        6     1 0.000588
##  7        7     1 0.773   
##  8        8     1 0.00445 
##  9        9     1 0.967   
## 10       10     1 0.147   
## # ... with 4,482 more rows

tidy(AssociatedPress) %>% 
  filter(document == 6) %>% 
  arrange(desc(count))

## # A tibble: 287 x 3
##    document term           count
##       <int> <chr>          <dbl>
##  1        6 noriega          16.
##  2        6 panama           12.
##  3        6 jackson           6.
##  4        6 powell            6.
##  5        6 administration    5.
##  6        6 economic          5.
##  7        6 general           5.
##  8        6 i                 5.
##  9        6 panamanian        5.
## 10        6 american          4.
## # ... with 277 more rows
…
# split into words
by_chapter_word <- by_chapter %>%
  unnest_tokens(word, text)

# find document-word counts
word_counts <- by_chapter_word %>%
  anti_join(stop_words) %>%
  count(document, word, sort = TRUE) %>%
  ungroup()

## Joining, by = "word"

word_counts

## # A tibble: 104,722 x 3
##    document                 word        n
##    <chr>                    <chr>   <int>
##  1 Great Expectations_57    joe        88
##  2 Great Expectations_7     joe        70
##  3 Great Expectations_17    biddy      63
##  4 Great Expectations_27    joe        58
##  5 Great Expectations_38    estella    58
##  6 Great Expectations_2     joe        56
##  7 Great Expectations_23    pocket     53
##  8 Great Expectations_15    joe        50
##  9 Great Expectations_18    joe        50
## 10 The War of the Worlds_16 brother    50
## # ... with 104,712 more rows
…
We can use the LDA function to create four-topic model. 4 topics because of 4 books.

chapters_lda <- LDA(chapters_dtm, k = 4, control = list(seed = 1234))
chapters_lda

## A LDA_VEM topic model with 4 topics.

Now we can examine the per topic per word probability.

chapter_topics <- tidy(chapters_lda, matrix = "beta")

chapter_topics

## # A tibble: 72,860 x 3
##    topic term        beta
##    <int> <chr>      <dbl>
##  1     1 joe     1.44e-17
##  2     2 joe     5.96e-61
##  3     3 joe     9.88e-25
##  4     4 joe     1.45e- 2
##  5     1 biddy   5.14e-28
##  6     2 biddy   5.02e-73
##  7     3 biddy   4.31e-48
##  8     4 biddy   4.78e- 3
##  9     1 estella 2.43e- 6
## 10     2 estella 4.32e-68
## # ... with 72,850 more rows
…
Figure 6.3: The terms that are most common within each topic

Per document classification

We find out which topics belong to which chapters. We can find this by examining per document per topic probabilities   .

chapters_gamma <- tidy(chapters_lda, matrix = "gamma")

chapters_gamma

## # A tibble: 772 x 3
##    document                 topic     gamma
##    <chr>                    <int>     <dbl>
##  1 Great Expectations_57        1 0.0000134
##  2 Great Expectations_7         1 0.0000146
##  3 Great Expectations_17        1 0.0000210
##  4 Great Expectations_27        1 0.0000190
##  5 Great Expectations_38        1 0.355    
##  6 Great Expectations_2         1 0.0000171
##  7 Great Expectations_23        1 0.547    
##  8 Great Expectations_15        1 0.0124   
##  9 Great Expectations_18        1 0.0000126
## 10 The War of the Worlds_16     1 0.0000107
## # ... with 762 more rows

Now we can separate the document name into title and chapter and then we can visualize the per document per topic probability.

chapters_gamma <- chapters_gamma %>% 
   separate(document, c("title", "chapter"),sep = "_", convert = T)

chapters_gamma

## # A tibble: 772 x 4
##    title                 chapter topic     gamma
##    <chr>                   <int> <int>     <dbl>
##  1 Great Expectations         57     1 0.0000134
##  2 Great Expectations          7     1 0.0000146
##  3 Great Expectations         17     1 0.0000210
##  4 Great Expectations         27     1 0.0000190
##  5 Great Expectations         38     1 0.355    
##  6 Great Expectations          2     1 0.0000171
##  7 Great Expectations         23     1 0.547    
##  8 Great Expectations         15     1 0.0124   
##  9 Great Expectations         18     1 0.0000126
## 10 The War of the Worlds      16     1 0.0000107
## # ... with 762 more rows
…
Figure 6.4: The gamma probabilities for each chapter within each book

Now we can find the topic that is most associated with the chapter using top_n()

chapters_classification <- chapters_gamma %>% 
  group_by(title, chapter) %>% 
  top_n(1, gamma) %>% 
  ungroup()

chapters_classification

## # A tibble: 193 x 4
##    title               chapter topic gamma
##    <chr>                 <int> <int> <dbl>
##  1 Great Expectations       23     1 0.547
##  2 Pride and Prejudice      43     1 1.000
##  3 Pride and Prejudice      18     1 1.000
##  4 Pride and Prejudice      45     1 1.000
##  5 Pride and Prejudice      16     1 1.000
##  6 Pride and Prejudice      29     1 1.000
##  7 Pride and Prejudice      10     1 1.000
##  8 Pride and Prejudice       8     1 1.000
##  9 Pride and Prejudice      56     1 1.000
## 10 Pride and Prejudice      47     1 1.000
## # ... with 183 more rows
…
We can see that only two chapters from Great Expectation are misclassified.

By words assignment : argument

One step of the LDA algorithm is assigning each word in each document to a topic. The more words in a document are assigned to that topic, generally, the more weight (gamma) will go on that document-topic classification. 
 We may want to see which words from original document-word pair were assigned to which topic. This can be done using augment() function from broom package used to tidy modell output. While tidy() retrieves the statistical components of the model, augment() uses a model to add information to each observation in the original data.

assignments <- augment(chapters_lda, data = chapters_dtm)

assignments

## # A tibble: 104,722 x 4
##    document              term  count .topic
##    <chr>                 <chr> <dbl>  <dbl>
##  1 Great Expectations_57 joe     88.     4.
##  2 Great Expectations_7  joe     70.     4.
##  3 Great Expectations_17 joe      5.     4.
##  4 Great Expectations_27 joe     58.     4.
##  5 Great Expectations_2  joe     56.     4.
##  6 Great Expectations_23 joe      1.     4.
##  7 Great Expectations_15 joe     50.     4.
##  8 Great Expectations_18 joe     50.     4.
##  9 Great Expectations_9  joe     44.     4.
## 10 Great Expectations_13 joe     40.     4.
## # ... with 104,712 more rows

We can compare the assessments table to consensus to find out which were incorrectly classified.

assignments <- assignments %>% 
  separate(document, c("title","chapter"), sep = "_", convert = T) %>% 
  inner_join(book_topics, by = c(".topic" = "topic"))

assignments

## # A tibble: 104,722 x 6
##    title              chapter term  count .topic consensus         
##    <chr>                <int> <chr> <dbl>  <dbl> <chr>             
##  1 Great Expectations      57 joe     88.     4. Great Expectations
##  2 Great Expectations       7 joe     70.     4. Great Expectations
##  3 Great Expectations      17 joe      5.     4. Great Expectations
##  4 Great Expectations      27 joe     58.     4. Great Expectations
##  5 Great Expectations       2 joe     56.     4. Great Expectations
##  6 Great Expectations      23 joe      1.     4. Great Expectations
##  7 Great Expectations      15 joe     50.     4. Great Expectations
##  8 Great Expectations      18 joe     50.     4. Great Expectations
##  9 Great Expectations       9 joe     44.     4. Great Expectations
## 10 Great Expectations      13 joe     40.     4. Great Expectations
## # ... with 104,712 more rows
…
Figure 6.5: Confusion matrix showing where LDA assigned the words from each book. Each row of this table represents the true book each word came from, and each column represents what book it was assigned to

We notice that almost all the words for Pride and Prejudice, Twenty Thousand Leagues Under the Sea, and War of the Worlds were correctly assigned, while Great Expectations had a fair number of misassigned words. 

What were the most commonly mistaken words ?

wrong_words <- assignments %>% 
  filter(title != consensus)

wrong_words %>% 
  count(title, consensus,term, wt = count) %>% 
  ungroup() %>% 
  arrange(desc(n))

## # A tibble: 3,551 x 4
##    title              consensus             term         n
##    <chr>              <chr>                 <chr>    <dbl>
##  1 Great Expectations Pride and Prejudice   love       44.
##  2 Great Expectations Pride and Prejudice   sergeant   37.
##  3 Great Expectations Pride and Prejudice   lady       32.
##  4 Great Expectations Pride and Prejudice   miss       26.
##  5 Great Expectations The War of the Worlds boat       25.
##  6 Great Expectations The War of the Worlds tide       20.
##  7 Great Expectations The War of the Worlds water      20.
##  8 Great Expectations Pride and Prejudice   father     19.
##  9 Great Expectations Pride and Prejudice   baby       18.
## 10 Great Expectations Pride and Prejudice   flopson    18.
## # ... with 3,541 more rows
…
## [1] TRUE

docs <- mallet.import(collapsed$document, collapsed$text, empty_file)

mallet_model <- MalletLDA(num.topics = 4)
mallet_model$loadDocuments(docs)
mallet_model$train(100)

After creating and training the model, we can use the tidy() and augment() functions in the same way as in LDA()

# topic word pairs
tidy(mallet_model)

## # A tibble: 71,064 x 3
##    topic term           beta
##    <int> <chr>         <dbl>
##  1     1 chapter 0.000000318
##  2     2 chapter 0.00126    
##  3     3 chapter 0.00441    
##  4     4 chapter 0.000000212
##  5     1 fathers 0.000000318
##  6     2 fathers 0.000000225
##  7     3 fathers 0.000000308
##  8     4 fathers 0.000722   
##  9     1 family  0.000000318
## 10     2 family  0.000000225
## # ... with 71,054 more rows

# document-topic pairs
tidy(mallet_model, matrix = "gamma")

## # A tibble: 772 x 3
##    document              topic  gamma
##    <chr>                 <int>  <dbl>
##  1 Great Expectations_1      1 0.158 
##  2 Great Expectations_10     1 0.0706
##  3 Great Expectations_11     1 0.0860
##  4 Great Expectations_12     1 0.0928
##  5 Great Expectations_13     1 0.0576
##  6 Great Expectations_14     1 0.108 
##  7 Great Expectations_15     1 0.0827
##  8 Great Expectations_16     1 0.0867
##  9 Great Expectations_17     1 0.0587
## 10 Great Expectations_18     1 0.0387
## # ... with 762 more rows

# column needs to be named "term" for "augment"

term_counts <- rename(word_counts, term = word)
augment(mallet_model, term_counts)

## # A tibble: 104,722 x 4
##    document                 term        n .topic
##    <chr>                    <chr>   <int>  <int>
##  1 Great Expectations_57    joe        88      2
##  2 Great Expectations_7     joe        70      2
##  3 Great Expectations_17    biddy      63      2
##  4 Great Expectations_27    joe        58      2
##  5 Great Expectations_38    estella    58      2
##  6 Great Expectations_2     joe        56      2
##  7 Great Expectations_23    pocket     53      2
##  8 Great Expectations_15    joe        50      2
##  9 Great Expectations_18    joe        50      2
## 10 The War of the Worlds_16 brother    50      2
## # ... with 104,712 more rows
