Text Mining In R Introduction
…
This function uses tokenizers package to separate each line in the original text into tokens. Now we need to remove the stop words. Stopwords are kept in dataset stop_words. We can remove them using anti join on the tidy_books.

data("stop_words")
tidy_books <- tidy_books%>%
  anti_join(stop_words)

## Joining, by = "word"

Finding the most common words using count.

tidy_books%>%
  count(word, sort =T)

## # A tibble: 13,914 x 2
##    word       n
##    <chr>  <int>
##  1 miss    1855
##  2 time    1337
##  3 fanny    862
##  4 dear     822
##  5 lady     817
##  6 sir      806
##  7 day      797
##  8 emma     787
##  9 sister   727
## 10 house    699
## # ... with 13,904 more rows
…
## Determining mirror for Project Gutenberg from http://www.gutenberg.org/robot/harvest

## Using mirror http://aleph.gutenberg.org

tidy_hgwells <- hgwells %>% 
  unnest_tokens(word,text) %>% 
  anti_join(stop_words)

## Joining, by = "word"

tidy_hgwells %>% 
  count(word, sort = T)

## # A tibble: 11,769 x 2
##    word       n
##    <chr>  <int>
##  1 time     454
##  2 people   302
##  3 door     260
##  4 heard    249
##  5 black    232
##  6 stood    229
##  7 white    222
##  8 hand     218
##  9 kemp     213
## 10 eyes     210
## # ... with 11,759 more rows

Analysis for bronte

bronte <- gutenberg_download(c(1260, 768, 969, 9182, 767))

tidy_bronte <- bronte %>%
  unnest_tokens(word, text) %>%
  anti_join(stop_words)

## Joining, by = "word"

tidy_bronte %>%
  count(word, sort = TRUE)

## # A tibble: 23,050 x 2
##    word       n
##    <chr>  <int>
##  1 time    1065
##  2 miss     855
##  3 day      827
##  4 hand     768
##  5 eyes     713
##  6 night    647
##  7 heart    638
##  8 looked   601
##  9 door     592
## 10 half     586
## # ... with 23,040 more rows
…
